{"results":[{"vote_count":2247,"id":297802,"video":false,"vote_average":6.9,"title":"Aquaman","popularity":494.618,"poster_path":"\/5Kg76ldv7VxeX9YlcQXiowHgdX6.jpg","original_language":"en","original_title":"Aquaman","genre_ids":[28,14,878,12],"backdrop_path":"\/5A2bMlLfJrAfX9bqAibOL2gCruF.jpg","adult":false,"overview":"Arthur Curry learns that he is the heir to the underwater kingdom of Atlantis, and must step forward to lead his people and be a hero to the world.","release_date":"2018-12-07"},{"vote_count":657,"id":424783,"video":false,"vote_average":6.6,"title":"Bumblebee","popularity":314.013,"poster_path":"\/fw02ONlDhrYjTSZV8XO6hhU3ds3.jpg","original_language":"en","original_title":"Bumblebee","genre_ids":[28,12,878],"backdrop_path":"\/8bZ7guF94ZyCzi7MLHzXz6E5Lv8.jpg","adult":false,"overview":"On the run in the year 1987, Bumblebee finds refuge in a junkyard in a small Californian beach town. Charlie, on the cusp of turning 18 and trying to find her place in the world, discovers Bumblebee, battle-scarred and broken.  When Charlie revives him, she quickly learns this is no ordinary yellow VW bug.","release_date":"2018-12-15"},{"vote_count":557,"id":400650,"video":false,"vote_average":6.8,"title":"Mary Poppins Returns","popularity":206.613,"poster_path":"\/uTVGku4LibMGyKgQvjBtv3OYfAX.jpg","original_language":"en","original_title":"Mary Poppins Returns","genre_ids":[14,10402,10751,35],"backdrop_path":"\/cwiJQXezWz876K3jS57Sq56RYCZ.jpg","adult":false,"overview":"In Depression-era London, a now-grown Jane and Michael Banks, along with Michael's three children, are visited by the enigmatic Mary Poppins following a personal loss. Through her unique magical skills, and with the aid of her friend Jack, she helps the family rediscover the joy and wonder missing in their lives.","release_date":"2018-12-19"},{"vote_count":117,"id":504172,"video":false,"vote_average":6.2,"title":"The Mule","popularity":196.363,"poster_path":"\/t0idiLMalKMj2pLsvqHrOM4LPdQ.jpg","original_language":"en","original_title":"The Mule","genre_ids":[80,18,53],"backdrop_path":"\/bkc4AY6FTa3yNqrshE9b1elDzPt.jpg","adult":false,"overview":"A 90-year-old horticulturalist and Korean War veteran is caught transporting $3 million worth of cocaine through Illinois for a Mexican drug cartel.","release_date":"2018-12-14"},{"vote_count":968,"id":324857,"video":false,"vote_average":8.5,"title":"Spider-Man: Into the Spider-Verse","popularity":174.648,"poster_path":"\/laMM4lpQSh5z6KIBPwWogkjzBVQ.jpg","original_language":"en","original_title":"Spider-Man: Into the Spider-Verse","genre_ids":[28,12,16,878,35],"backdrop_path":"\/e7CE5vx4KqUuz0peKdHRVZB0Pn8.jpg","adult":false,"overview":"Miles Morales is juggling his life between being a high school student and being Spider-Man. However, when Wilson \"Kingpin\" Fisk uses a super collider, another Spider-Man from another dimension, Peter Parker, accidentally winds up in Miles' dimension, joining others from across the \"Spider-Verse\".","release_date":"2018-12-07"},{"vote_count":497,"id":480530,"video":false,"vote_average":6.4,"title":"Creed II","popularity":167.088,"poster_path":"\/v3QyboWRoA4O9RbcsqH8tJMe8EB.jpg","original_language":"en","original_title":"Creed II","genre_ids":[18,28],"backdrop_path":"\/8yqLPNwNCtpOPc3XkOlkSMnghzw.jpg","adult":false,"overview":"Follows Adonis Creed's life inside and outside of the ring as he deals with new found fame, issues with his family, and his continuing quest to become a champion.","release_date":"2018-11-21"},{"vote_count":2598,"id":405774,"video":false,"vote_average":7.2,"title":"Bird Box","popularity":165.32,"poster_path":"\/rGfGfgL2pEPCfhIvqHXieXFn7gp.jpg","original_language":"en","original_title":"Bird Box","genre_ids":[53,18,878,27],"backdrop_path":"\/z6m7s4w4Erxnr5k2jc1TZR1AMva.jpg","adult":false,"overview":"When a mysterious force decimates the world’s population, only one thing is certain: if you see it, you take your life. Facing the unknown, Malorie finds love, hope and a new beginning only for it to unravel. Now she must flee with her two children down a treacherous river to the one place left that may offer sanctuary. But to survive, they'll have to undertake the perilous two-day journey blindfolded.","release_date":"2018-12-13"},{"vote_count":145,"id":429197,"video":false,"vote_average":7.1,"title":"Vice","popularity":150.247,"poster_path":"\/e0NZxqQ4B8YZ6kRrZish2DPqtdi.jpg","original_language":"en","original_title":"Vice","genre_ids":[18,36,35],"backdrop_path":"\/uvy89JLcYEiUb0VOoSjkUrIW3nJ.jpg","adult":false,"overview":"George W. Bush picks Dick Cheney, the CEO of Halliburton Co., to be his Republican running mate in the 2000 presidential election. No stranger to politics, Cheney's impressive résumé includes stints as White House chief of staff, House Minority Whip and defense secretary. When Bush wins by a narrow margin, Cheney begins to use his newfound power to help reshape the country and the world.","release_date":"2018-12-25"},{"vote_count":717,"id":404368,"video":false,"vote_average":7.5,"title":"Ralph Breaks the Internet","popularity":123.251,"poster_path":"\/lvfIaThG5HA8THf76nghKinjjji.jpg","original_language":"en","original_title":"Ralph Breaks the Internet","genre_ids":[10751,16,35,14],"backdrop_path":"\/88poTBTafMXaz73vYi3c74g0y2k.jpg","adult":false,"overview":"Six years after the events of \"Wreck-It Ralph,\" Ralph and Vanellope, now friends, discover a wi-fi router in their arcade, leading them into a new adventure.","release_date":"2018-11-20"},{"vote_count":485,"id":428078,"video":false,"vote_average":6.1,"title":"Mortal Engines","popularity":120.748,"poster_path":"\/uXJVpPXxZO4L8Rz3IG1Y8XvZJcg.jpg","original_language":"en","original_title":"Mortal Engines","genre_ids":[878,28,12],"backdrop_path":"\/rxYG6Sj95as9rv9wKIHUx6ATWd3.jpg","adult":false,"overview":"Set in a world many thousands of years in the future. Earth’s cities now roam the globe on huge wheels, devouring each other in a struggle for ever diminishing resources. On one of these massive Traction Cities, Tom Natsworthy has an unexpected encounter with a mysterious young woman from the Outlands who will change the course of his life forever.","release_date":"2018-12-06"},{"vote_count":115,"id":503314,"video":false,"vote_average":7.3,"title":"Dragon Ball Super: Broly","popularity":119.613,"poster_path":"\/518jdIQHCZmYqIcNCaqbZuDRheV.jpg","original_language":"ja","original_title":"ドラゴンボール超スーパー ブロリー","genre_ids":[28,16,878],"backdrop_path":"\/6OTRuxpwUUGbmCX3MKP25dOmo59.jpg","adult":false,"overview":"Earth is peaceful following the Tournament of Power. Realizing that the universes still hold many more strong people yet to see, Goku spends all his days training to reach even greater heights. Then one day, Goku and Vegeta are faced by a Saiyan called 'Broly' who they've never seen before. The Saiyans were supposed to have been almost completely wiped out in the destruction of Planet Vegeta, so what's this one doing on Earth? This encounter between the three Saiyans who have followed completely different destinies turns into a stupendous battle, with even Frieza (back from Hell) getting caught up in the mix.","release_date":"2018-12-14"},{"vote_count":35,"id":567604,"video":false,"vote_average":7.8,"title":"Once Upon a Deadpool","popularity":108.905,"poster_path":"\/5Ka49BWWyKMXr93YMbH5wLN7aAM.jpg","original_language":"en","original_title":"Once Upon a Deadpool","genre_ids":[35,28],"backdrop_path":"\/djah5gSgqzIbMj2SU0Ljj8Xo2pT.jpg","adult":false,"overview":"A kidnapped Fred Savage is forced to endure Deadpool's PG-13 rendition of Deadpool 2 as a Princess Bride-esque story that's full of magic, wonder & zero F's.","release_date":"2018-12-11"},{"vote_count":23,"id":505954,"video":false,"vote_average":4.5,"title":"T-34","popularity":101.538,"poster_path":"\/qNBjbjpQC2Rm8M1v0X8jQxb4AnN.jpg","original_language":"ru","original_title":"Т-34","genre_ids":[10752,18,12],"backdrop_path":"\/vDx8XxfYjkn573bCFGF6SkdM33Q.jpg","adult":false,"overview":"1941 - WWii. the second lieutenant Nikolai ivushkin, commander of a t-34, engages in an unequal battle against the tank ace Klaus Jager in a battle near moscow. His mission is more of a suicide - to destroy a dozen german tanks, all by himself. that said, luck does favour the bold. He wins the battle, barely survives, but loses his tank and lands himself in captivity for three long years... there was little to no chance for ivushkin and Jager to meet again, but the war knows how to throw a curve ball.in the spring of 1944, the Wehrmacht commands Jager to take charge of the ohrdruf  re range and turn it into a training center for elite german armored forces, using the latest t-34 as a running target. this is how Jager and ivushkin cross paths again. Jager o ers ivushkin to become the commander of a legendary tank and pick his crew from fellow camp prisoners. Nothing goes according to plan, though, when ivushkin uses exercises for a daring and carefully planned escape.","release_date":"2018-12-27"},{"vote_count":389,"id":375588,"video":false,"vote_average":5.9,"title":"Robin Hood","popularity":96.385,"poster_path":"\/AiRfixFcfTkNbn2A73qVJPlpkUo.jpg","original_language":"en","original_title":"Robin Hood","genre_ids":[12,28,53],"backdrop_path":"\/AuA50D7T7S7OEVcGo0ZKaMhERn0.jpg","adult":false,"overview":"A war-hardened Crusader and his Moorish commander mount an audacious revolt against the corrupt English crown.","release_date":"2018-11-20"},{"vote_count":1,"id":461693,"video":false,"vote_average":1,"title":"Silukkuvarupatti Singam","popularity":91.549,"poster_path":"\/iIPbuINYWjvRZhXVrA5TDcKDuCy.jpg","original_language":"ta","original_title":"சிலுக்குவார்பட்டி சிங்கம்","genre_ids":[28,35],"backdrop_path":"\/9c8LgVXzPkXh7VIEoRoUy7FOZv1.jpg","adult":false,"overview":"A constable who prefers to mind his own business gets into a situation where he has to hide from a most-wanted gangster.","release_date":"2018-12-21"},{"vote_count":524,"id":454293,"video":false,"vote_average":6,"title":"Night School","popularity":90.4,"poster_path":"\/uQVIQDc3foTPodZw0ie1Or0CXBn.jpg","original_language":"en","original_title":"Night School","genre_ids":[35],"backdrop_path":"\/jJBimY3DXIaIaL4NeGHfR0U0rSh.jpg","adult":false,"overview":"Teddy Walker is a successful salesman whose life takes an unexpected turn when he accidentally blows up his place of employment. Forced to attend night school to get his GED, Teddy soon finds himself dealing with a group of misfit students, his former high school nemesis and a feisty teacher who doesn't think he's too bright.","release_date":"2018-09-27"},{"vote_count":50,"id":300681,"video":false,"vote_average":5.5,"title":"Replicas","popularity":87.714,"poster_path":"\/kEuIYDEJ9ReBbJLb7QeP9KdbjEe.jpg","original_language":"en","original_title":"Replicas","genre_ids":[53,878,9648],"backdrop_path":"\/sHPfBVFq7dlnXCz1zFdbEdwcBDJ.jpg","adult":false,"overview":"A scientist becomes obsessed with bringing back his family members who died in a traffic accident.","release_date":"2018-11-01"},{"vote_count":148,"id":375262,"video":false,"vote_average":7.6,"title":"The Favourite","popularity":79.277,"poster_path":"\/cwBq0onfmeilU5xgqNNjJAMPfpw.jpg","original_language":"en","original_title":"The Favourite","genre_ids":[18,36,35],"backdrop_path":"\/ekWMoBZ4B9rM60INZEh5FAD2HFR.jpg","adult":false,"overview":"In 18th century England, the close relationship between Queen Anne and Sarah Churchill is threatened by the arrival of Sarah's cousin, Abigail Hill, resulting in a bitter rivalry between the two cousins to be the Queen's favourite.","release_date":"2018-11-20"},{"vote_count":591,"id":426426,"video":false,"vote_average":8.1,"title":"Roma","popularity":68.841,"poster_path":"\/dtIIyQyALk57ko5bjac7hi01YQ.jpg","original_language":"es","original_title":"Roma","genre_ids":[18],"backdrop_path":"\/uXs8rTXZDaWUclprxZuxfaZqei5.jpg","adult":false,"overview":"In 1970s Mexico City, two domestic workers help a mother of four while her husband is away for an extended period of time.","release_date":"2018-08-25"},{"vote_count":15,"id":507562,"video":false,"vote_average":5.1,"title":"Crayon Shin-chan: Burst Serving! Kung Fu Boys ~Ramen Rebellion~","popularity":66.023,"poster_path":"\/fPc793wngYwFk1pziUNAoCCBmMU.jpg","original_language":"ja","original_title":"クレヨンしんちゃん 爆盛！カンフーボーイズ ～拉麺大乱～","genre_ids":[35,12,16],"backdrop_path":"\/oEu96CmVL9kjneOzjatLeeSZYS2.jpg","adult":false,"overview":"Shin-chan is all set to challenge Kung Fu in the Chinatown of Kasukabe city, known as Aiyā Town.  He and the Kasukabe Defence Force are going to put up a totally no-stunt Kung Fu challenge on the stage.","release_date":"2018-04-13"}],"page":1,"total_results":798,"dates":{"maximum":"2019-01-17","minimum":"2018-11-30"},"total_pages":40}